<svg width="96" height="11" viewBox="0 0 96 11" fill="none" xmlns="http://www.w3.org/2000/svg">
<g clip-path="url(#clip0)">
<path d="M16.9018 4.33074V10.6603H18.556V4.33074H16.9018ZM22.209 1.81501V0.241244H13.2488V1.81501H22.209ZM7.62002 1.81501V0.241244H0.00390625V1.81501H7.62002ZM0.00390625 4.33074V10.6603H1.68106V5.89302H6.40236V4.33074H0.00390625ZM9.57287 0.241244H11.25V10.6603H9.57287V0.241244ZM33.0645 10.6603H30.9853L27.9986 6.62821H25.8734V10.6603H24.1963V0.241244H28.7912C30.8704 0.241244 32.4672 1.37849 32.4672 3.43473C32.4672 5.06593 31.4563 6.12277 29.9629 6.49037L33.0645 10.6603ZM28.6649 5.1004C29.8021 5.1004 30.7556 4.58346 30.7556 3.46919C30.7556 2.33194 29.8021 1.81501 28.6649 1.81501H25.8734V5.1004H28.6649ZM33.9261 5.44502C33.8801 2.46979 36.2121 -0.0459401 39.394 9.32709e-06C42.5646 -0.0459401 44.908 2.46979 44.862 5.44502C44.908 8.42024 42.5646 10.936 39.394 10.89C36.2121 10.936 33.8801 8.42024 33.9261 5.44502ZM43.1274 5.44502C43.1274 3.27391 41.6915 1.56229 39.394 1.56229C37.1196 1.56229 35.6492 3.27391 35.6492 5.44502C35.6492 7.6391 37.1196 9.31626 39.394 9.31626C41.6915 9.31626 43.1274 7.6391 43.1274 5.44502ZM46.2405 5.44502C46.1946 2.46979 48.538 -0.0459401 51.7085 9.32709e-06C54.879 -0.0459401 57.2339 2.46979 57.188 5.44502C57.2339 8.42024 54.879 10.936 51.7085 10.89C48.538 10.936 46.1946 8.42024 46.2405 5.44502ZM55.4534 5.44502C55.4534 3.27391 54.006 1.56229 51.7085 1.56229C49.434 1.56229 47.9636 3.27391 47.9636 5.44502C47.9636 7.6391 49.434 9.31626 51.7085 9.31626C54.006 9.31626 55.4534 7.6391 55.4534 5.44502ZM59.2557 0.241244H61.2085L64.2182 4.88214V4.89362L67.2394 0.241244H69.1808V10.6603H67.5266V2.76846L64.9764 6.62821H63.4601L60.9099 2.76846V10.6603H59.2557V0.241244ZM71.7999 9.546C71.7999 8.86825 72.3283 8.31686 73.029 8.31686C73.7068 8.31686 74.2582 8.86825 74.2582 9.546C74.2582 10.2582 73.7068 10.7751 73.029 10.7751C72.3283 10.7751 71.7999 10.2582 71.7999 9.546ZM87.2159 6.69714V0.241244H88.8931V6.66268C88.8931 8.52363 90.0763 9.29328 91.4892 9.29328C93.1549 9.29328 94.0739 8.52363 94.0739 6.66268V0.241244H95.751V6.69714C95.751 9.67236 93.959 10.9015 91.4892 10.9015C89.0079 10.9015 87.2159 9.67236 87.2159 6.69714ZM82.6439 6.49037C84.1258 6.12277 85.1367 5.06593 85.1367 3.43473C85.1367 1.37849 83.54 0.241244 81.4607 0.241244H76.8658V1.81501H81.3344C82.4716 1.81501 83.4251 2.33194 83.4251 3.46919C83.4251 4.58346 82.4716 5.1004 81.3344 5.1004H76.8658V10.6603H78.543V6.62821H80.6796L83.6548 10.6603H85.734L82.6439 6.49037Z" fill="white"/>
</g>
<defs>
<clipPath id="clip0">
<rect width="95.7547" height="10.9015" fill="white"/>
</clipPath>
</defs>
</svg>
